            _
  __ _  __ _| |_ _____      ____ _ _   _
 / _` |/ _` | __/ _ \ \ /\ / / _` | | | |
| (_| | (_| | ||  __/\ V  V / (_| | |_| |
 \__, |\__,_|\__\___| \_/\_/ \__,_|\__, |
 |___/                             |___/